@extends('smarticops::layouts.app')

@section('title', trans('smarticops::passwords.reset.title'))

@section('content')
                    <form class="form-horizontal" role="form" method="POST" action="{{ url('/password/reset') }}">
                        {!! csrf_field() !!}

                        <input type="hidden" name="token" value="{{ $token }}">

                        <div class="form-group{{ $errors->has('email') ? ' has-error' : '' }}">
                            <label class="col-md-4 control-label">{{trans('smarticops::users.email')}}</label>

                            <div class="col-md-6">
                                <input type="email" class="form-control" name="email" value="{{ $email or old('email') }}">

                                @if ($errors->has('email'))
                                    <span class="help-block">
                                        <strong>{{ $errors->first('email') }}</strong>
                                    </span>
                                @endif
                            </div>
                        </div>

                        <div class="form-group{{ $errors->has('password') ? ' has-error' : '' }}">
                            <label class="col-md-4 control-label">{{trans('smarticops::auth.form.password').' - '.trans('smarticops::auth.form.minimum')}}</label>

                            <div class="col-md-6">
                                <input type="password" class="form-control" name="password">

                                @if ($errors->has('password'))
                                    <span class="help-block">
                                        <strong>{{ $errors->first('password') }}</strong>
                                    </span>
                                @endif
                            </div>
                        </div>

                        <div class="form-group{{ $errors->has('password_confirmation') ? ' has-error' : '' }}">
                            <label class="col-md-4 control-label">{{trans('smarticops::auth.form.confirm_password')}}</label>
                            <div class="col-md-6">
                                <input type="password" class="form-control" name="password_confirmation">

                                @if ($errors->has('password_confirmation'))
                                    <span class="help-block">
                                        <strong>{{ $errors->first('password_confirmation') }}</strong>
                                    </span>
                                @endif
                            </div>
                        </div>

                        <div class="form-group">
                            <div class="col-md-6 col-md-offset-4">
                                <button type="submit" class="btn btn-primary">
                                    <i class="fa fa-btn fa-refresh"></i>{{trans('smarticops::passwords.reset.button')}}
                                </button>
                            </div>
                        </div>
                    </form>
                    
@endsection

